{
  "id_artista": "3fMbdgg4jU18AjLCKBhRSm",
  "data": {
    "href": "https://api.spotify.com/v1/artists/3fMbdgg4jU18AjLCKBhRSm/albums?offset=0&limit=10&include_groups=album,single,compilation,appears_on",
    "items": [
      {
        "album_group": "album",
        "album_type": "album",
        "artists": [
          {
            "external_urls": {
              "spotify": "https://open.spotify.com/artist/3fMbdgg4jU18AjLCKBhRSm"
            },
            "href": "https://api.spotify.com/v1/artists/3fMbdgg4jU18AjLCKBhRSm",
            "id": "3fMbdgg4jU18AjLCKBhRSm",
            "name": "Michael Jackson",
            "type": "artist",
            "uri": "spotify:artist:3fMbdgg4jU18AjLCKBhRSm"
          }
        ],
        "available_markets": [
          "AD",
          "AE",
          "AR",
          "AT",
          "AU",
          "BE",
          "BG",
          "BH",
          "BO",
          "BR",
          "CA",
          "CH",
          "CL",
          "CO",
          "CR",
          "CY",
          "CZ",
          "DE",
          "DK",
          "DO",
          "DZ",
          "EC",
          "EE",
          "EG",
          "ES",
          "FI",
          "FR",
          "GB",
          "GR",
          "GT",
          "HK",
          "HN",
          "HU",
          "ID",
          "IE",
          "IL",
          "IN",
          "IS",
          "IT",
          "JO",
          "JP",
          "KW",
          "LB",
          "LI",
          "LT",
          "LU",
          "LV",
          "MA",
          "MC",
          "MT",
          "MX",
          "MY",
          "NI",
          "NL",
          "NO",
          "NZ",
          "OM",
          "PA",
          "PE",
          "PH",
          "PL",
          "PS",
          "PT",
          "PY",
          "QA",
          "RO",
          "SA",
          "SE",
          "SG",
          "SK",
          "SV",
          "TH",
          "TN",
          "TR",
          "TW",
          "US",
          "UY",
          "VN",
          "ZA"
        ],
        "external_urls": {
          "spotify": "https://open.spotify.com/album/2X8UOIkZQdcz2Hi5Ynt2uk"
        },
        "href": "https://api.spotify.com/v1/albums/2X8UOIkZQdcz2Hi5Ynt2uk",
        "id": "2X8UOIkZQdcz2Hi5Ynt2uk",
        "images": [
          {
            "height": 640,
            "url": "https://i.scdn.co/image/afc94d1d4b72d8c2d81660131e53f36ea92affda",
            "width": 640
          },
          {
            "height": 300,
            "url": "https://i.scdn.co/image/0f75e9422e70650550ec9e4dee7c132fb9bede7a",
            "width": 300
          },
          {
            "height": 64,
            "url": "https://i.scdn.co/image/b188d610efd0432755907dc336355b7df0827d87",
            "width": 64
          }
        ],
        "name": "Scream",
        "release_date": "2017-09-27",
        "release_date_precision": "day",
        "total_tracks": 14,
        "type": "album",
        "uri": "spotify:album:2X8UOIkZQdcz2Hi5Ynt2uk"
      },
      {
        "album_group": "album",
        "album_type": "album",
        "artists": [
          {
            "external_urls": {
              "spotify": "https://open.spotify.com/artist/3fMbdgg4jU18AjLCKBhRSm"
            },
            "href": "https://api.spotify.com/v1/artists/3fMbdgg4jU18AjLCKBhRSm",
            "id": "3fMbdgg4jU18AjLCKBhRSm",
            "name": "Michael Jackson",
            "type": "artist",
            "uri": "spotify:artist:3fMbdgg4jU18AjLCKBhRSm"
          }
        ],
        "available_markets": [
          "AD",
          "AE",
          "AR",
          "AT",
          "AU",
          "BE",
          "BG",
          "BH",
          "BO",
          "BR",
          "CA",
          "CH",
          "CL",
          "CO",
          "CR",
          "CY",
          "CZ",
          "DE",
          "DK",
          "DO",
          "DZ",
          "EC",
          "EE",
          "EG",
          "ES",
          "FI",
          "FR",
          "GB",
          "GR",
          "GT",
          "HK",
          "HN",
          "HU",
          "ID",
          "IE",
          "IL",
          "IN",
          "IS",
          "IT",
          "JO",
          "JP",
          "KW",
          "LB",
          "LI",
          "LT",
          "LU",
          "LV",
          "MA",
          "MC",
          "MT",
          "MX",
          "MY",
          "NI",
          "NL",
          "NO",
          "NZ",
          "OM",
          "PA",
          "PE",
          "PH",
          "PL",
          "PS",
          "PT",
          "PY",
          "QA",
          "RO",
          "SA",
          "SE",
          "SG",
          "SK",
          "SV",
          "TH",
          "TN",
          "TR",
          "TW",
          "US",
          "UY",
          "VN",
          "ZA"
        ],
        "external_urls": {
          "spotify": "https://open.spotify.com/album/7pomP86PUhoJpY3fsC0WDQ"
        },
        "href": "https://api.spotify.com/v1/albums/7pomP86PUhoJpY3fsC0WDQ",
        "id": "7pomP86PUhoJpY3fsC0WDQ",
        "images": [
          {
            "height": 640,
            "url": "https://i.scdn.co/image/fa75bec32c71f5f4339c41b6ca816f4dd4cac111",
            "width": 640
          },
          {
            "height": 300,
            "url": "https://i.scdn.co/image/931b8485ff71e58f07ba6f66ac671690391b6fe9",
            "width": 300
          },
          {
            "height": 64,
            "url": "https://i.scdn.co/image/4caac4eb87871d0725bb77f931b931fa46cb47c8",
            "width": 64
          }
        ],
        "name": "XSCAPE",
        "release_date": "2014-05-09",
        "release_date_precision": "day",
        "total_tracks": 17,
        "type": "album",
        "uri": "spotify:album:7pomP86PUhoJpY3fsC0WDQ"
      },
      {
        "album_group": "album",
        "album_type": "album",
        "artists": [
          {
            "external_urls": {
              "spotify": "https://open.spotify.com/artist/3fMbdgg4jU18AjLCKBhRSm"
            },
            "href": "https://api.spotify.com/v1/artists/3fMbdgg4jU18AjLCKBhRSm",
            "id": "3fMbdgg4jU18AjLCKBhRSm",
            "name": "Michael Jackson",
            "type": "artist",
            "uri": "spotify:artist:3fMbdgg4jU18AjLCKBhRSm"
          }
        ],
        "available_markets": [
          "AD",
          "AE",
          "AR",
          "AT",
          "AU",
          "BE",
          "BG",
          "BH",
          "BO",
          "BR",
          "CA",
          "CH",
          "CL",
          "CO",
          "CR",
          "CY",
          "CZ",
          "DE",
          "DK",
          "DO",
          "DZ",
          "EC",
          "EE",
          "EG",
          "ES",
          "FI",
          "FR",
          "GB",
          "GR",
          "GT",
          "HK",
          "HN",
          "HU",
          "ID",
          "IE",
          "IL",
          "IN",
          "IS",
          "IT",
          "JO",
          "KW",
          "LB",
          "LI",
          "LT",
          "LU",
          "LV",
          "MA",
          "MC",
          "MT",
          "MX",
          "MY",
          "NI",
          "NL",
          "NO",
          "NZ",
          "OM",
          "PA",
          "PE",
          "PH",
          "PL",
          "PS",
          "PT",
          "PY",
          "QA",
          "RO",
          "SA",
          "SE",
          "SG",
          "SK",
          "SV",
          "TH",
          "TN",
          "TR",
          "TW",
          "US",
          "UY",
          "VN",
          "ZA"
        ],
        "external_urls": {
          "spotify": "https://open.spotify.com/album/54WFfZzds26NrwcmStfamd"
        },
        "href": "https://api.spotify.com/v1/albums/54WFfZzds26NrwcmStfamd",
        "id": "54WFfZzds26NrwcmStfamd",
        "images": [
          {
            "height": 640,
            "url": "https://i.scdn.co/image/0058742f98bf9d1865cf0f2e5f75304f0ef785fa",
            "width": 640
          },
          {
            "height": 300,
            "url": "https://i.scdn.co/image/140cf2898ca9bdcc58b8d3819a598b964188f2f3",
            "width": 300
          },
          {
            "height": 64,
            "url": "https://i.scdn.co/image/370f8d2528ea29aa1960547bb90b7cd01ec9d34f",
            "width": 64
          }
        ],
        "name": "XSCAPE - Track by Track Commentary",
        "release_date": "2014-05-09",
        "release_date_precision": "day",
        "total_tracks": 8,
        "type": "album",
        "uri": "spotify:album:54WFfZzds26NrwcmStfamd"
      },
      {
        "album_group": "album",
        "album_type": "album",
        "artists": [
          {
            "external_urls": {
              "spotify": "https://open.spotify.com/artist/3fMbdgg4jU18AjLCKBhRSm"
            },
            "href": "https://api.spotify.com/v1/artists/3fMbdgg4jU18AjLCKBhRSm",
            "id": "3fMbdgg4jU18AjLCKBhRSm",
            "name": "Michael Jackson",
            "type": "artist",
            "uri": "spotify:artist:3fMbdgg4jU18AjLCKBhRSm"
          }
        ],
        "available_markets": [
          "AD",
          "AE",
          "AR",
          "AT",
          "AU",
          "BE",
          "BG",
          "BH",
          "BO",
          "BR",
          "CA",
          "CH",
          "CL",
          "CO",
          "CR",
          "CY",
          "CZ",
          "DE",
          "DK",
          "DO",
          "DZ",
          "EC",
          "EE",
          "EG",
          "ES",
          "FI",
          "FR",
          "GB",
          "GR",
          "GT",
          "HK",
          "HN",
          "HU",
          "ID",
          "IE",
          "IL",
          "IN",
          "IS",
          "IT",
          "JO",
          "JP",
          "KW",
          "LB",
          "LI",
          "LT",
          "LU",
          "LV",
          "MA",
          "MC",
          "MT",
          "MX",
          "MY",
          "NI",
          "NL",
          "NO",
          "NZ",
          "OM",
          "PA",
          "PE",
          "PH",
          "PL",
          "PS",
          "PT",
          "PY",
          "QA",
          "RO",
          "SA",
          "SE",
          "SG",
          "SK",
          "SV",
          "TH",
          "TN",
          "TR",
          "TW",
          "US",
          "UY",
          "VN",
          "ZA"
        ],
        "external_urls": {
          "spotify": "https://open.spotify.com/album/0yYWeLqonFk11pmb0RiMbP"
        },
        "href": "https://api.spotify.com/v1/albums/0yYWeLqonFk11pmb0RiMbP",
        "id": "0yYWeLqonFk11pmb0RiMbP",
        "images": [
          {
            "height": 636,
            "url": "https://i.scdn.co/image/062f7d2bae4c0350192fc7900c598557238cecb0",
            "width": 640
          },
          {
            "height": 298,
            "url": "https://i.scdn.co/image/5ed6e3f96f3a099b1830fb6f7e33e3791a03fa07",
            "width": 300
          },
          {
            "height": 64,
            "url": "https://i.scdn.co/image/8186add565833bc69bc7dbc1622d1ca275f79c73",
            "width": 64
          }
        ],
        "name": "Michael",
        "release_date": "2010-12-14",
        "release_date_precision": "day",
        "total_tracks": 10,
        "type": "album",
        "uri": "spotify:album:0yYWeLqonFk11pmb0RiMbP"
      },
      {
        "album_group": "album",
        "album_type": "album",
        "artists": [
          {
            "external_urls": {
              "spotify": "https://open.spotify.com/artist/3fMbdgg4jU18AjLCKBhRSm"
            },
            "href": "https://api.spotify.com/v1/artists/3fMbdgg4jU18AjLCKBhRSm",
            "id": "3fMbdgg4jU18AjLCKBhRSm",
            "name": "Michael Jackson",
            "type": "artist",
            "uri": "spotify:artist:3fMbdgg4jU18AjLCKBhRSm"
          }
        ],
        "available_markets": [
          "AD",
          "AE",
          "AR",
          "AT",
          "AU",
          "BE",
          "BG",
          "BH",
          "BO",
          "BR",
          "CA",
          "CH",
          "CL",
          "CO",
          "CR",
          "CY",
          "CZ",
          "DE",
          "DK",
          "DO",
          "DZ",
          "EC",
          "EE",
          "EG",
          "ES",
          "FI",
          "FR",
          "GB",
          "GR",
          "GT",
          "HK",
          "HN",
          "HU",
          "ID",
          "IE",
          "IL",
          "IN",
          "IS",
          "IT",
          "JO",
          "JP",
          "KW",
          "LB",
          "LI",
          "LT",
          "LU",
          "LV",
          "MA",
          "MC",
          "MT",
          "MX",
          "MY",
          "NI",
          "NL",
          "NO",
          "NZ",
          "OM",
          "PA",
          "PE",
          "PH",
          "PL",
          "PS",
          "PT",
          "PY",
          "QA",
          "RO",
          "SA",
          "SE",
          "SG",
          "SK",
          "SV",
          "TH",
          "TN",
          "TR",
          "TW",
          "US",
          "UY",
          "VN",
          "ZA"
        ],
        "external_urls": {
          "spotify": "https://open.spotify.com/album/52E4RP7XDzalpIrOgSTgiQ"
        },
        "href": "https://api.spotify.com/v1/albums/52E4RP7XDzalpIrOgSTgiQ",
        "id": "52E4RP7XDzalpIrOgSTgiQ",
        "images": [
          {
            "height": 640,
            "url": "https://i.scdn.co/image/eaf3634a830af9ccc1d8c07129b95054bca9d242",
            "width": 640
          },
          {
            "height": 300,
            "url": "https://i.scdn.co/image/a965e2268e29a456b20e440d0594e8f57b78c375",
            "width": 300
          },
          {
            "height": 64,
            "url": "https://i.scdn.co/image/24fd72062c07d14c52940a251b3914163b91a97f",
            "width": 64
          }
        ],
        "name": "Invincible",
        "release_date": "2001-10-29",
        "release_date_precision": "day",
        "total_tracks": 16,
        "type": "album",
        "uri": "spotify:album:52E4RP7XDzalpIrOgSTgiQ"
      },
      {
        "album_group": "album",
        "album_type": "album",
        "artists": [
          {
            "external_urls": {
              "spotify": "https://open.spotify.com/artist/3fMbdgg4jU18AjLCKBhRSm"
            },
            "href": "https://api.spotify.com/v1/artists/3fMbdgg4jU18AjLCKBhRSm",
            "id": "3fMbdgg4jU18AjLCKBhRSm",
            "name": "Michael Jackson",
            "type": "artist",
            "uri": "spotify:artist:3fMbdgg4jU18AjLCKBhRSm"
          }
        ],
        "available_markets": [
          "AD",
          "AE",
          "AR",
          "AT",
          "AU",
          "BG",
          "BH",
          "BO",
          "BR",
          "CA",
          "CH",
          "CL",
          "CO",
          "CR",
          "CY",
          "CZ",
          "DE",
          "DK",
          "DO",
          "DZ",
          "EC",
          "EE",
          "EG",
          "ES",
          "FI",
          "FR",
          "GB",
          "GR",
          "GT",
          "HK",
          "HN",
          "HU",
          "ID",
          "IE",
          "IL",
          "IN",
          "IS",
          "IT",
          "JO",
          "JP",
          "KW",
          "LB",
          "LI",
          "LT",
          "LV",
          "MA",
          "MC",
          "MT",
          "MX",
          "MY",
          "NI",
          "NL",
          "NO",
          "NZ",
          "OM",
          "PA",
          "PE",
          "PH",
          "PL",
          "PS",
          "PT",
          "PY",
          "QA",
          "RO",
          "SA",
          "SE",
          "SG",
          "SK",
          "SV",
          "TH",
          "TN",
          "TR",
          "TW",
          "US",
          "UY",
          "VN",
          "ZA"
        ],
        "external_urls": {
          "spotify": "https://open.spotify.com/album/0RNsFWWdiz1rrdLI1pwbvJ"
        },
        "href": "https://api.spotify.com/v1/albums/0RNsFWWdiz1rrdLI1pwbvJ",
        "id": "0RNsFWWdiz1rrdLI1pwbvJ",
        "images": [
          {
            "height": 640,
            "url": "https://i.scdn.co/image/3d27cef05433199a3e3b11e6d03e62b4f31e6b51",
            "width": 640
          },
          {
            "height": 300,
            "url": "https://i.scdn.co/image/c6e9b6c0b1a0a8f51ef31844d006f70b186ef181",
            "width": 300
          },
          {
            "height": 64,
            "url": "https://i.scdn.co/image/449591d51554869a09cce72e40dc9ecc61656407",
            "width": 64
          }
        ],
        "name": "BLOOD ON THE DANCE FLOOR/ HIStory In The Mix",
        "release_date": "1997-05-11",
        "release_date_precision": "day",
        "total_tracks": 13,
        "type": "album",
        "uri": "spotify:album:0RNsFWWdiz1rrdLI1pwbvJ"
      },
      {
        "album_group": "album",
        "album_type": "album",
        "artists": [
          {
            "external_urls": {
              "spotify": "https://open.spotify.com/artist/3fMbdgg4jU18AjLCKBhRSm"
            },
            "href": "https://api.spotify.com/v1/artists/3fMbdgg4jU18AjLCKBhRSm",
            "id": "3fMbdgg4jU18AjLCKBhRSm",
            "name": "Michael Jackson",
            "type": "artist",
            "uri": "spotify:artist:3fMbdgg4jU18AjLCKBhRSm"
          }
        ],
        "available_markets": [
          "BE",
          "LU"
        ],
        "external_urls": {
          "spotify": "https://open.spotify.com/album/6BYNnU3IYdmYCNHtvlFngH"
        },
        "href": "https://api.spotify.com/v1/albums/6BYNnU3IYdmYCNHtvlFngH",
        "id": "6BYNnU3IYdmYCNHtvlFngH",
        "images": [
          {
            "height": 640,
            "url": "https://i.scdn.co/image/3d27cef05433199a3e3b11e6d03e62b4f31e6b51",
            "width": 640
          },
          {
            "height": 300,
            "url": "https://i.scdn.co/image/c6e9b6c0b1a0a8f51ef31844d006f70b186ef181",
            "width": 300
          },
          {
            "height": 64,
            "url": "https://i.scdn.co/image/449591d51554869a09cce72e40dc9ecc61656407",
            "width": 64
          }
        ],
        "name": "BLOOD ON THE DANCE FLOOR/ HIStory In The Mix",
        "release_date": "1997-05-11",
        "release_date_precision": "day",
        "total_tracks": 12,
        "type": "album",
        "uri": "spotify:album:6BYNnU3IYdmYCNHtvlFngH"
      },
      {
        "album_group": "album",
        "album_type": "album",
        "artists": [
          {
            "external_urls": {
              "spotify": "https://open.spotify.com/artist/3fMbdgg4jU18AjLCKBhRSm"
            },
            "href": "https://api.spotify.com/v1/artists/3fMbdgg4jU18AjLCKBhRSm",
            "id": "3fMbdgg4jU18AjLCKBhRSm",
            "name": "Michael Jackson",
            "type": "artist",
            "uri": "spotify:artist:3fMbdgg4jU18AjLCKBhRSm"
          }
        ],
        "available_markets": [
          "AD",
          "AE",
          "AR",
          "AT",
          "AU",
          "BG",
          "BH",
          "BO",
          "BR",
          "CA",
          "CH",
          "CL",
          "CO",
          "CR",
          "CY",
          "CZ",
          "DE",
          "DK",
          "DO",
          "DZ",
          "EC",
          "EE",
          "EG",
          "ES",
          "FI",
          "FR",
          "GB",
          "GR",
          "GT",
          "HK",
          "HN",
          "HU",
          "ID",
          "IE",
          "IL",
          "IN",
          "IS",
          "IT",
          "JO",
          "JP",
          "KW",
          "LB",
          "LI",
          "LT",
          "LV",
          "MA",
          "MC",
          "MT",
          "MX",
          "MY",
          "NI",
          "NL",
          "NO",
          "NZ",
          "OM",
          "PA",
          "PE",
          "PH",
          "PL",
          "PS",
          "PT",
          "PY",
          "QA",
          "RO",
          "SA",
          "SE",
          "SG",
          "SK",
          "SV",
          "TH",
          "TN",
          "TR",
          "TW",
          "US",
          "UY",
          "VN",
          "ZA"
        ],
        "external_urls": {
          "spotify": "https://open.spotify.com/album/3OBhnTLrvkoEEETjFA3Qfk"
        },
        "href": "https://api.spotify.com/v1/albums/3OBhnTLrvkoEEETjFA3Qfk",
        "id": "3OBhnTLrvkoEEETjFA3Qfk",
        "images": [
          {
            "height": 640,
            "url": "https://i.scdn.co/image/257ddbb5b9448316279fee5c82003a92e3a814b3",
            "width": 640
          },
          {
            "height": 300,
            "url": "https://i.scdn.co/image/0bae7727a95e222cac3f73fffc2e07796425dd23",
            "width": 300
          },
          {
            "height": 64,
            "url": "https://i.scdn.co/image/8dfb24ff3fac5c8701fdfc50e2895339bc6d1a49",
            "width": 64
          }
        ],
        "name": "HIStory - PAST, PRESENT AND FUTURE - BOOK I",
        "release_date": "1995-06-16",
        "release_date_precision": "day",
        "total_tracks": 30,
        "type": "album",
        "uri": "spotify:album:3OBhnTLrvkoEEETjFA3Qfk"
      },
      {
        "album_group": "album",
        "album_type": "album",
        "artists": [
          {
            "external_urls": {
              "spotify": "https://open.spotify.com/artist/3fMbdgg4jU18AjLCKBhRSm"
            },
            "href": "https://api.spotify.com/v1/artists/3fMbdgg4jU18AjLCKBhRSm",
            "id": "3fMbdgg4jU18AjLCKBhRSm",
            "name": "Michael Jackson",
            "type": "artist",
            "uri": "spotify:artist:3fMbdgg4jU18AjLCKBhRSm"
          }
        ],
        "available_markets": [
          "BE",
          "LU"
        ],
        "external_urls": {
          "spotify": "https://open.spotify.com/album/3Y4ZambRFbDzlnCtqEUrgY"
        },
        "href": "https://api.spotify.com/v1/albums/3Y4ZambRFbDzlnCtqEUrgY",
        "id": "3Y4ZambRFbDzlnCtqEUrgY",
        "images": [
          {
            "height": 640,
            "url": "https://i.scdn.co/image/257ddbb5b9448316279fee5c82003a92e3a814b3",
            "width": 640
          },
          {
            "height": 300,
            "url": "https://i.scdn.co/image/0bae7727a95e222cac3f73fffc2e07796425dd23",
            "width": 300
          },
          {
            "height": 64,
            "url": "https://i.scdn.co/image/8dfb24ff3fac5c8701fdfc50e2895339bc6d1a49",
            "width": 64
          }
        ],
        "name": "HIStory - PAST, PRESENT AND FUTURE - BOOK I",
        "release_date": "1995-06-16",
        "release_date_precision": "day",
        "total_tracks": 29,
        "type": "album",
        "uri": "spotify:album:3Y4ZambRFbDzlnCtqEUrgY"
      },
      {
        "album_group": "album",
        "album_type": "album",
        "artists": [
          {
            "external_urls": {
              "spotify": "https://open.spotify.com/artist/3fMbdgg4jU18AjLCKBhRSm"
            },
            "href": "https://api.spotify.com/v1/artists/3fMbdgg4jU18AjLCKBhRSm",
            "id": "3fMbdgg4jU18AjLCKBhRSm",
            "name": "Michael Jackson",
            "type": "artist",
            "uri": "spotify:artist:3fMbdgg4jU18AjLCKBhRSm"
          }
        ],
        "available_markets": [
          "AD",
          "AE",
          "AR",
          "AT",
          "AU",
          "BE",
          "BG",
          "BH",
          "BO",
          "BR",
          "CA",
          "CH",
          "CL",
          "CO",
          "CR",
          "CY",
          "CZ",
          "DE",
          "DK",
          "DO",
          "DZ",
          "EC",
          "EE",
          "EG",
          "ES",
          "FI",
          "FR",
          "GB",
          "GR",
          "GT",
          "HK",
          "HN",
          "HU",
          "ID",
          "IE",
          "IL",
          "IN",
          "IS",
          "IT",
          "JO",
          "JP",
          "KW",
          "LB",
          "LI",
          "LT",
          "LU",
          "LV",
          "MA",
          "MC",
          "MT",
          "MX",
          "MY",
          "NI",
          "NL",
          "NO",
          "NZ",
          "OM",
          "PA",
          "PE",
          "PH",
          "PL",
          "PS",
          "PT",
          "PY",
          "QA",
          "RO",
          "SA",
          "SE",
          "SG",
          "SK",
          "SV",
          "TH",
          "TN",
          "TR",
          "TW",
          "US",
          "UY",
          "VN",
          "ZA"
        ],
        "external_urls": {
          "spotify": "https://open.spotify.com/album/0oX4SealMgNXrvRDhqqOKg"
        },
        "href": "https://api.spotify.com/v1/albums/0oX4SealMgNXrvRDhqqOKg",
        "id": "0oX4SealMgNXrvRDhqqOKg",
        "images": [
          {
            "height": 640,
            "url": "https://i.scdn.co/image/9d31ca65b1360fd319d5f52cd7f15b0992b08c23",
            "width": 640
          },
          {
            "height": 300,
            "url": "https://i.scdn.co/image/a91781c04fd84a6346d6e5bf85ff1016b8a85e47",
            "width": 300
          },
          {
            "height": 64,
            "url": "https://i.scdn.co/image/89cfbfdc2e7053c1a5ca693f8105799f1dad3704",
            "width": 64
          }
        ],
        "name": "Dangerous",
        "release_date": "1991-11-13",
        "release_date_precision": "day",
        "total_tracks": 14,
        "type": "album",
        "uri": "spotify:album:0oX4SealMgNXrvRDhqqOKg"
      }
    ],
    "limit": 10,
    "next": "https://api.spotify.com/v1/artists/3fMbdgg4jU18AjLCKBhRSm/albums?offset=10&limit=10&include_groups=album,single,compilation,appears_on",
    "offset": 0,
    "previous": null,
    "total": 439
  },
  "success": true,
  "msg": ""
}