{
  "body": {
    "artists": {
      "href": "https://api.spotify.com/v1/search?query=beatles&type=artist&offset=0&limit=20",
      "items": [{
        "external_urls": {
          "spotify": "https://open.spotify.com/artist/08td7MxkoHQkXnWAYD8d6Q"
        },
        "genres": [],
        "href": "https://api.spotify.com/v1/artists/08td7MxkoHQkXnWAYD8d6Q",
        "id": "08td7MxkoHQkXnWAYD8d6Q",
        "images": [{
          "height": 640,
          "url": "https://i.scdn.co/image/f2798ddab0c7b76dc2d270b65c4f67ddef7f6718",
          "width": 640
        }, {
          "height": 300,
          "url": "https://i.scdn.co/image/b414091165ea0f4172089c2fc67bb35aa37cfc55",
          "width": 300
        }, {
          "height": 64,
          "url": "https://i.scdn.co/image/8522fc78be4bf4e83fea8e67bb742e7d3dfe21b4",
          "width": 64
        }],
        "name": "Tania Bowra",
        "popularity": 0,
        "type": "artist",
        "uri": "spotify:artist:08td7MxkoHQkXnWAYD8d6Q"
      }],
      "limit": 20,
      "next": "https://api.spotify.com/v1/search?query=beatles&type=artist&offset=20&limit=20",
      "offset": 0,
      "previous": null,
      "total": 65
    }
  },
  "headers": {
    "content-type": "application/json; charset=utf-8",
    "cache-control": "public, max-age=7200",
    "access-control-allow-origin": "*",
    "access-control-allow-headers": "Accept, Authorization, Origin, Content-Type, Retry-After",
    "access-control-allow-methods": "GET, POST, OPTIONS, PUT, DELETE, PATCH",
    "access-control-allow-credentials": "true",
    "access-control-max-age": "604800",
    "content-encoding": "gzip",
    "date": "Wed, 18 Jul 2018 21:40:00 GMT",
    "via": "1.1 google",
    "alt-svc": "clear",
    "connection": "close",
    "transfer-encoding": "chunked"
  },
  "statusCode": 200
}